BRowse Over Longitudinal data Graphically and Analytically in R • brolgar
…
Together, time index and key uniquely identify an observation.

The term key is used a lot in brolgar, so it is an important idea to internalise:

The key is the identifier of your individuals or series

Identifying the key, index, and regularity of the data can be a challenge. You can learn more about specifying this in the vignette, “Longitudinal Data Structures”.

The wages data

The wages data is an example dataset provided with brolgar. It looks like this:

wages
#> # A tsibble: 6,402 x 9 [!]
#> # Key:       id [888]
#>       id ln_wages    xp   ged xp_since_ged black hispanic high_grade
#>    <int>    <dbl> <dbl> <int>        <dbl> <int>    <int>      <int>
#>  1    31     1.49 0.015     1        0.015     0        1          8
#>  2    31     1.43 0.715     1        0.715     0        1          8
#>  3    31     1.47 1.73      1        1.73      0        1          8
#>  4    31     1.75 2.77      1        2.77      0        1          8
#>  5    31     1.93 3.93      1        3.93      0        1          8
#>  6    31     1.71 4.95      1        4.95      0        1          8
#>  7    31     2.09 5.96      1        5.96      0        1          8
#>  8    31     2.13 6.98      1        6.98      0        1          8
#>  9    36     1.98 0.315     1        0.315     0        0          9
#> 10    36     1.80 0.983     1        0.983     0        0          9
#> # … with 6,392 more rows, and 1 more variable: unemploy_rate <dbl>
…
Under the hood, facet_sample() is powered by sample_n_keys() and stratify_keys().

You can see more facets (e.g., facet_strata()) and data visualisations you can make in brolgar in the Visualisation Gallery.

Finding features in longitudinal data

Sometimes you want to know what the range or a summary of a variable for each individual. We call these summaries features of the data, and they can be extracted using the features function, from fabletools.

For example, if you want to answer the question “What is the summary of wages for each individual?”. You can use features() to find the five number summary (min, max, q1, q3, and median) of ln_wages with feat_five_num:

wages %>%
  features(ln_wages,
           feat_five_num)
#> # A tibble: 888 x 6
#>       id   min   q25   med   q75   max
#>    <int> <dbl> <dbl> <dbl> <dbl> <dbl>
#>  1    31 1.43   1.48  1.73  2.02  2.13
#>  2    36 1.80   1.97  2.32  2.59  2.93
#>  3    53 1.54   1.58  1.71  1.89  3.24
#>  4   122 0.763  2.10  2.19  2.46  2.92
#>  5   134 2.00   2.28  2.36  2.79  2.93
#>  6   145 1.48   1.58  1.77  1.89  2.04
#>  7   155 1.54   1.83  2.22  2.44  2.64
#>  8   173 1.56   1.68  2.00  2.05  2.34
#>  9   206 2.03   2.07  2.30  2.45  2.48
#> 10   207 1.58   1.87  2.15  2.26  2.66
#> # … with 878 more rows

This returns the id, and then the features.

There are many features in brolgar - these features all begin with feat_. You can, for example, find those whose ln_wages values only increase or decrease with feat_monotonic:

wages %>%
  features(ln_wages, feat_monotonic)
#> # A tibble: 888 x 5
#>       id increase decrease unvary monotonic
#>    <int> <lgl>    <lgl>    <lgl>  <lgl>    
#>  1    31 FALSE    FALSE    FALSE  FALSE    
#>  2    36 FALSE    FALSE    FALSE  FALSE    
#>  3    53 FALSE    FALSE    FALSE  FALSE    
#>  4   122 FALSE    FALSE    FALSE  FALSE    
#>  5   134 FALSE    FALSE    FALSE  FALSE    
#>  6   145 FALSE    FALSE    FALSE  FALSE    
#>  7   155 FALSE    FALSE    FALSE  FALSE    
#>  8   173 FALSE    FALSE    FALSE  FALSE    
#>  9   206 TRUE     FALSE    FALSE  TRUE     
#> 10   207 FALSE    FALSE    FALSE  FALSE    
#> # … with 878 more rows
…
n_keys()

And the number of keys in the data using n_keys():

n_keys(wages)
#> [1] 888

Finding the number of observations per key.

You can also use n_obs() inside features to return the number of observations for each key:

wages %>%
  features(ln_wages, n_obs)
#> # A tibble: 888 x 2
#>       id n_obs
#>    <int> <int>
#>  1    31     8
#>  2    36    10
#>  3    53     8
#>  4   122    10
#>  5   134    12
#>  6   145     9
#>  7   155    11
#>  8   173     6
#>  9   206     3
#> 10   207    11
#> # … with 878 more rows
…
