Calculate features of a tsibble object in conjunction with features() — brolgar-features • brolgar
…
    x
A vector to extract features from.

...
Further arguments passed to other functions.

    Examples

# You can use any of the features `feat_*` in conjunction with `features` 
# like so:
heights %>%
  features(height_cm, # variable you want to explore
           feat_three_num) # the feature summarisation you want to perform
#> # A tibble: 144 × 4
#>    country       min   med   max
#>    <chr>       <dbl> <dbl> <dbl>
#>  1 Afghanistan  161.  167.  168.
#>  2 Albania      168.  170.  170.
#>  3 Algeria      166.  169   171.
#>  4 Angola       159.  167.  169.
#>  5 Argentina    167.  168.  174.
#>  6 Armenia      164.  169.  172.
#>  7 Australia    170   172.  178.
#>  8 Austria      162.  167.  179.
#>  9 Azerbaijan   170.  172.  172.
#> 10 Bahrain      161.  164.  164 
#> # ℹ 134 more rows
…
