Wages data from National Longitudinal Survey of Youth (NLSY) — wages • brolgar
…
hispanic
categorical indicator of race = hispanic.

high_grade
highest grade completed

unemploy_rate
unemployment rates in the local geographic region
at each measurement time

    Examples

# show the data
wages
#> # A tsibble: 6,402 x 9 [!]
#> # Key:       id [888]
#>       id ln_wages    xp   ged xp_since_ged black hispanic high_grade
#>    <int>    <dbl> <dbl> <int>        <dbl> <int>    <int>      <int>
#>  1    31     1.49 0.015     1        0.015     0        1          8
#>  2    31     1.43 0.715     1        0.715     0        1          8
#>  3    31     1.47 1.73      1        1.73      0        1          8
#>  4    31     1.75 2.77      1        2.77      0        1          8
#>  5    31     1.93 3.93      1        3.93      0        1          8
#>  6    31     1.71 4.95      1        4.95      0        1          8
#>  7    31     2.09 5.96      1        5.96      0        1          8
#>  8    31     2.13 6.98      1        6.98      0        1          8
#>  9    36     1.98 0.315     1        0.315     0        0          9
#> 10    36     1.80 0.983     1        0.983     0        0          9
#> # ℹ 6,392 more rows
#> # ℹ 1 more variable: unemploy_rate <dbl>
…
# explore the five number summary of ln_wages with `features`
wages %>%
  features(ln_wages, feat_five_num)
#> # A tibble: 888 × 6
#>       id   min   q25   med   q75   max
#>    <int> <dbl> <dbl> <dbl> <dbl> <dbl>
#>  1    31 1.43   1.48  1.73  2.02  2.13
#>  2    36 1.80   1.97  2.32  2.59  2.93
#>  3    53 1.54   1.58  1.71  1.89  3.24
#>  4   122 0.763  2.10  2.19  2.46  2.92
#>  5   134 2.00   2.28  2.36  2.79  2.93
#>  6   145 1.48   1.58  1.77  1.89  2.04
#>  7   155 1.54   1.83  2.22  2.44  2.64
#>  8   173 1.56   1.68  2.00  2.05  2.34
#>  9   206 2.03   2.07  2.30  2.45  2.48
#> 10   207 1.58   1.87  2.15  2.26  2.66
#> # ℹ 878 more rows
…
