Starting Steps • brolgar
…
      basic_exploration.Rmd

library(brolgar)

When we first get a longitudinal dataset, you need to understand some of its structure. This vignette demonstrates part of the process of understanding your new longitudinal data.

Basic summaries of the data

How many observations are there?

We can find the number of observations with l_n_obs().

l_n_obs(wages, id)
#> # A tibble: 888 x 2
#>       id l_n_obs
#>    <int>   <int>
#>  1    31       8
#>  2    36      10
#>  3    53       8
#>  4   122      10
#>  5   134      12
#>  6   145       9
#>  7   155      11
#>  8   173       6
#>  9   206       3
#> 10   207      11
#> # … with 878 more rows
…
