creating-features • brolgar
…
These are then passed to features like so:

wages_ts %>%
  features(ln_wages, feat_three)
#> # A tibble: 888 x 4
#>       id   min   med   max
#>    <int> <dbl> <dbl> <dbl>
#>  1    31 1.43   1.73  2.13
#>  2    36 1.80   2.32  2.93
#>  3    53 1.54   1.71  3.24
#>  4   122 0.763  2.19  2.92
#>  5   134 2.00   2.36  2.93
#>  6   145 1.48   1.77  2.04
#>  7   155 1.54   2.22  2.64
#>  8   173 1.56   2.00  2.34
#>  9   206 2.03   2.30  2.48
#> 10   207 1.58   2.15  2.66
#> # … with 878 more rows

world_heights %>%
  features(height_cm, feat_three)
#> # A tibble: 153 x 4
#>    country       min   med   max
#>    <chr>       <dbl> <dbl> <dbl>
#>  1 Afghanistan  161.  167.  168.
#>  2 Albania      168.  170.  170.
#>  3 Algeria      166.  169   171.
#>  4 Angola       159.  167.  169.
#>  5 Argentina    167.  168.  174.
#>  6 Armenia      164.  169.  172.
#>  7 Australia    170   172.  178.
#>  8 Austria      162.  167.  179.
#>  9 Azerbaijan   170.  172.  172.
#> 10 Bahrain      161.  164.  164 
#> # … with 143 more rows
…
