Finding summary keys • brolgar
…
First, we need to get the data into a format where we have all the statistics that we are interested in, along with the id, and the statistic of interest.

Like this

wages_slope_all_stats <- wages_slope %>%
  mutate_all(.funs = list(min = b_min,
                          max = b_max,
                          median = b_median,
                          q1 = b_q25,
                          q3 = b_q75)) %>%
  select(id,
         starts_with(".slope"))

wages_slope_all_stats
#> # A tibble: 888 x 7
#>       id .slope_xp .slope_xp_min .slope_xp_max .slope_xp_median
#>    <int>     <dbl>         <dbl>         <dbl>            <dbl>
#>  1    31    0.101          -4.58          13.2           0.0480
#>  2    36    0.0588         -4.58          13.2           0.0480
#>  3    53   -0.358          -4.58          13.2           0.0480
#>  4   122    0.0374         -4.58          13.2           0.0480
#>  5   134    0.0831         -4.58          13.2           0.0480
#>  6   145    0.0469         -4.58          13.2           0.0480
#>  7   155    0.0867         -4.58          13.2           0.0480
#>  8   173    0.100          -4.58          13.2           0.0480
#>  9   206    0.180          -4.58          13.2           0.0480
#> 10   207    0.0884         -4.58          13.2           0.0480
#> # … with 878 more rows, and 2 more variables: .slope_xp_q1 <dbl>,
#> #   .slope_xp_q3 <dbl>

We then need to convert this into long format

wages_slope_all_stats_long <- 
wages_slope_all_stats %>%
gather(key = "stat",
         value = "stat_value",
         -id,
         -.slope_xp)

wages_slope_all_stats_long
#> # A tibble: 4,440 x 4
#>       id .slope_xp stat          stat_value
#>    <int>     <dbl> <chr>              <dbl>
#>  1    31    0.101  .slope_xp_min      -4.58
#>  2    36    0.0588 .slope_xp_min      -4.58
#>  3    53   -0.358  .slope_xp_min      -4.58
#>  4   122    0.0374 .slope_xp_min      -4.58
#>  5   134    0.0831 .slope_xp_min      -4.58
#>  6   145    0.0469 .slope_xp_min      -4.58
#>  7   155    0.0867 .slope_xp_min      -4.58
#>  8   173    0.100  .slope_xp_min      -4.58
#>  9   206    0.180  .slope_xp_min      -4.58
#> 10   207    0.0884 .slope_xp_min      -4.58
#> # … with 4,430 more rows

We can then calculate the difference between each stat and the slope, .slope_xp:

stats_diff <- 
wages_slope_all_stats_long %>%
  mutate(stat_diff = abs(.slope_xp - stat_value))

stats_diff
#> # A tibble: 4,440 x 5
#>       id .slope_xp stat          stat_value stat_diff
#>    <int>     <dbl> <chr>              <dbl>     <dbl>
#>  1    31    0.101  .slope_xp_min      -4.58      4.68
#>  2    36    0.0588 .slope_xp_min      -4.58      4.64
#>  3    53   -0.358  .slope_xp_min      -4.58      4.22
#>  4   122    0.0374 .slope_xp_min      -4.58      4.61
#>  5   134    0.0831 .slope_xp_min      -4.58      4.66
#>  6   145    0.0469 .slope_xp_min      -4.58      4.62
#>  7   155    0.0867 .slope_xp_min      -4.58      4.66
#>  8   173    0.100  .slope_xp_min      -4.58      4.68
#>  9   206    0.180  .slope_xp_min      -4.58      4.76
#> 10   207    0.0884 .slope_xp_min      -4.58      4.67
#> # … with 4,430 more rows
…
We can then join that back onto the data to show with gghighlight

top_stats_diff %>%
  select(id, .slope_xp, stat) %>%
  right_join(wages_ts, by = "id")
#> # A tibble: 6,402 x 11
#> # Groups:   stat [6]
#>       id .slope_xp stat  ln_wages    xp   ged postexp black hispanic
#>    <int>     <dbl> <chr>    <dbl> <dbl> <int>   <dbl> <int>    <int>
#>  1    31        NA <NA>      1.49 0.015     1   0.015     0        1
#>  2    31        NA <NA>      1.43 0.715     1   0.715     0        1
#>  3    31        NA <NA>      1.47 1.73      1   1.73      0        1
#>  4    31        NA <NA>      1.75 2.77      1   2.77      0        1
#>  5    31        NA <NA>      1.93 3.93      1   3.93      0        1
#>  6    31        NA <NA>      1.71 4.95      1   4.95      0        1
#>  7    31        NA <NA>      2.09 5.96      1   5.96      0        1
#>  8    31        NA <NA>      2.13 6.98      1   6.98      0        1
#>  9    36        NA <NA>      1.98 0.315     1   0.315     0        0
#> 10    36        NA <NA>      1.80 0.983     1   0.983     0        0
#> # … with 6,392 more rows, and 2 more variables: high_grade <int>,
#> #   unemploy_rate <dbl>
…
