Getting Started • brolgar
…
How many observations are there?

The number of observations can mean different things We can kind the number of keys using n_keys():

library(tsibble)
n_keys(wages)
#> [1] 888

Note that this is a single number, in this case, we have 888 observations.

However, we might want to know how many observations we have for each individual. If we want the number of observations in each key (id), then we can use n_key_obs().

n_key_obs(wages)
#> # A tibble: 888 x 2
#>       id n_obs
#>    <int> <int>
#>  1    31     8
#>  2    36    10
#>  3    53     8
#>  4   122    10
#>  5   134    12
#>  6   145     9
#>  7   155    11
#>  8   173     6
#>  9   206     3
#> 10   207    11
#> # … with 878 more rows
…
Under the hood, facet_sample() and facet_strata() use sample_n_keys() and stratify_keys().

Exploratory modelling

You can fit a linear model for each key using key_slope(). This returns the intercept and slope estimate for each key, given some linear model formula. We can get the number of observations, and slope information for each individual to identify those that are decreasing over time.

key_slope(wages,ln_wages ~ xp)
#> # A tibble: 888 x 3
#>       id .intercept .slope_xp
#>    <int>      <dbl>     <dbl>
#>  1    31       1.41    0.101 
#>  2    36       2.04    0.0588
#>  3    53       2.29   -0.358 
#>  4   122       1.93    0.0374
#>  5   134       2.03    0.0831
#>  6   145       1.59    0.0469
#>  7   155       1.66    0.0867
#>  8   173       1.61    0.100 
#>  9   206       1.73    0.180 
#> 10   207       1.62    0.0884
#> # … with 878 more rows
…
wages_slope
#> # A tibble: 6,402 x 11
#>       id .intercept .slope_xp ln_wages    xp   ged xp_since_ged black
#>    <int>      <dbl>     <dbl>    <dbl> <dbl> <int>        <dbl> <int>
#>  1    31       1.41    0.101      1.49 0.015     1        0.015     0
#>  2    31       1.41    0.101      1.43 0.715     1        0.715     0
#>  3    31       1.41    0.101      1.47 1.73      1        1.73      0
#>  4    31       1.41    0.101      1.75 2.77      1        2.77      0
#>  5    31       1.41    0.101      1.93 3.93      1        3.93      0
#>  6    31       1.41    0.101      1.71 4.95      1        4.95      0
#>  7    31       1.41    0.101      2.09 5.96      1        5.96      0
#>  8    31       1.41    0.101      2.13 6.98      1        6.98      0
#>  9    36       2.04    0.0588     1.98 0.315     1        0.315     0
#> 10    36       2.04    0.0588     1.80 0.983     1        0.983     0
#> # … with 6,392 more rows, and 3 more variables: hispanic <int>,
#> #   high_grade <int>, unemploy_rate <dbl>
…
Finding features in longitudinal data

You can extract features of longitudinal data using the features function, from fablelite. You can, for example, calculate the minimum of a given variable for each key by providing a named list like so:

wages %>%
  features(ln_wages, 
           list(min = min))
#> # A tibble: 888 x 2
#>       id   min
#>    <int> <dbl>
#>  1    31 1.43 
#>  2    36 1.80 
#>  3    53 1.54 
#>  4   122 0.763
#>  5   134 2.00 
#>  6   145 1.48 
#>  7   155 1.54 
#>  8   173 1.56 
#>  9   206 2.03 
#> 10   207 1.58 
#> # … with 878 more rows

brolgar provides some sets of features, which start with feat_.

For example, the five number summary is feat_five_num:

wages %>%
  features(ln_wages, feat_five_num)
#> # A tibble: 888 x 6
#>       id   min   q25   med   q75   max
#>    <int> <dbl> <dbl> <dbl> <dbl> <dbl>
#>  1    31 1.43   1.48  1.73  2.02  2.13
#>  2    36 1.80   1.97  2.32  2.59  2.93
#>  3    53 1.54   1.58  1.71  1.89  3.24
#>  4   122 0.763  2.10  2.19  2.46  2.92
#>  5   134 2.00   2.28  2.36  2.79  2.93
#>  6   145 1.48   1.58  1.77  1.89  2.04
#>  7   155 1.54   1.83  2.22  2.44  2.64
#>  8   173 1.56   1.68  2.00  2.05  2.34
#>  9   206 2.03   2.07  2.30  2.45  2.48
#> 10   207 1.58   1.87  2.15  2.26  2.66
#> # … with 878 more rows

Or finding those whose values only increase or decrease with feat_monotonic

wages %>%
  features(ln_wages, feat_monotonic)
#> # A tibble: 888 x 5
#>       id increase decrease unvary monotonic
#>    <int> <lgl>    <lgl>    <lgl>  <lgl>    
#>  1    31 FALSE    FALSE    FALSE  FALSE    
#>  2    36 FALSE    FALSE    FALSE  FALSE    
#>  3    53 FALSE    FALSE    FALSE  FALSE    
#>  4   122 FALSE    FALSE    FALSE  FALSE    
#>  5   134 FALSE    FALSE    FALSE  FALSE    
#>  6   145 FALSE    FALSE    FALSE  FALSE    
#>  7   155 FALSE    FALSE    FALSE  FALSE    
#>  8   173 FALSE    FALSE    FALSE  FALSE    
#>  9   206 TRUE     FALSE    FALSE  TRUE     
#> 10   207 FALSE    FALSE    FALSE  FALSE    
#> # … with 878 more rows
…
