Stats on Stats: Workflows with Longnostics • brolgar
…
l_max_wages_near <- summarise_l_max_wages %>%
  mutate(is_near = list(map_dfr(flatten(qs), part_near))) %>% 
  select(id, is_near) %>%
  unnest() %>%
  gather(key = "near_q",
         value = "value",
         2:4,
         -id) %>%
  mutate(quant_is_near = case_when(
    value ~ glue::glue("q_{readr::parse_number(near_q)}")
  )) %>%
  filter(!is.na(quant_is_near))

l_max_wages_near
#> # A tibble: 206 x 4
#>       id near_q value quant_is_near
#>    <int> <chr>  <lgl> <S3: glue>   
#>  1   226 25%    TRUE  q_25         
#>  2   234 25%    TRUE  q_25         
#>  3   630 25%    TRUE  q_25         
#>  4   741 25%    TRUE  q_25         
#>  5   767 25%    TRUE  q_25         
#>  6  1211 25%    TRUE  q_25         
#>  7  1536 25%    TRUE  q_25         
#>  8  1679 25%    TRUE  q_25         
#>  9  1822 25%    TRUE  q_25         
#> 10  1823 25%    TRUE  q_25         
#> # … with 196 more rows
…
