Exploratory Modelling • brolgar
…
      Exploratory Modelling

      Source: vignettes/exploratory-modelling.Rmd
      exploratory-modelling.Rmd

library(brolgar)

It can be useful to fit a model to explore your data. One technique is to fit a linear model for each group in a dataset. For example, you could fit a linear model for each key in the data.

brolgar provides a helper function to help with this, called key_slope().

key_slope() returns the intercept and slope estimate for each key, given a linear model formula. We can get the number of observations, and slope information for each individual to identify those that are decreasing over time.

key_slope(wages,ln_wages ~ xp)
#> # A tibble: 888 x 3
#>       id .intercept .slope_xp
#>    <int>      <dbl>     <dbl>
#>  1    31       1.41    0.101 
#>  2    36       2.04    0.0588
#>  3    53       2.29   -0.358 
#>  4   122       1.93    0.0374
#>  5   134       2.03    0.0831
#>  6   145       1.59    0.0469
#>  7   155       1.66    0.0867
#>  8   173       1.61    0.100 
#>  9   206       1.73    0.180 
#> 10   207       1.62    0.0884
#> # … with 878 more rows
…
library(dplyr)
#> 
#> Attaching package: 'dplyr'
#> The following objects are masked from 'package:stats':
#> 
#>     filter, lag
#> The following objects are masked from 'package:base':
#> 
#>     intersect, setdiff, setequal, union
wages_slope <- key_slope(wages,ln_wages ~ xp) %>%
  left_join(wages, by = "id")

wages_slope
#> # A tibble: 6,402 x 11
#>       id .intercept .slope_xp ln_wages    xp   ged xp_since_ged black hispanic
#>    <int>      <dbl>     <dbl>    <dbl> <dbl> <int>        <dbl> <int>    <int>
#>  1    31       1.41    0.101      1.49 0.015     1        0.015     0        1
#>  2    31       1.41    0.101      1.43 0.715     1        0.715     0        1
#>  3    31       1.41    0.101      1.47 1.73      1        1.73      0        1
#>  4    31       1.41    0.101      1.75 2.77      1        2.77      0        1
#>  5    31       1.41    0.101      1.93 3.93      1        3.93      0        1
#>  6    31       1.41    0.101      1.71 4.95      1        4.95      0        1
#>  7    31       1.41    0.101      2.09 5.96      1        5.96      0        1
#>  8    31       1.41    0.101      2.13 6.98      1        6.98      0        1
#>  9    36       2.04    0.0588     1.98 0.315     1        0.315     0        0
#> 10    36       2.04    0.0588     1.80 0.983     1        0.983     0        0
#> # … with 6,392 more rows, and 2 more variables: high_grade <int>,
#> #   unemploy_rate <dbl>
…
Finding those groups that are near these values can be surprisingly challenging!

brolgar makes it easier by providing the keys_near() function. You tell it what the key is, what variable you want to summarise by, and then by default it returns those keys near the five number summary. Let’s return the keys near the .slope_xp:

wages_slope %>%
  keys_near(key = id,
            var = .slope_xp)
#> Warning: Problem with `mutate()` input `stat`.
#> ℹ Outer names are only allowed for unnamed scalar atomic inputs
#> ℹ Input `stat` is `forcats::fct_relevel(.f = stat, levels = names(funs))`.
#> Warning: Outer names are only allowed for unnamed scalar atomic inputs
#> # A tibble: 31 x 5
#>       id .slope_xp stat  stat_value stat_diff
#>    <int>     <dbl> <fct>      <dbl>     <dbl>
#>  1  7918  -4.58    min     -4.58            0
#>  2  7918  -4.58    min     -4.58            0
#>  3  7918  -4.58    min     -4.58            0
#>  4  2092  -0.00189 q_25    -0.00189         0
#>  5  2092  -0.00189 q_25    -0.00189         0
#>  6  2092  -0.00189 q_25    -0.00189         0
#>  7  2092  -0.00189 q_25    -0.00189         0
#>  8  2092  -0.00189 q_25    -0.00189         0
#>  9  2092  -0.00189 q_25    -0.00189         0
#> 10  6863   0.0452  med      0.0452          0
#> # … with 21 more rows
…
