Identify Interesting Observations • brolgar
…
  News

      Identify Interesting Observations

      Source: vignettes/id-interesting-obs.Rmd
      id-interesting-obs.Rmd

This vignette unpacks how to find interesting individuals.

Let’s say we calculate a slope for each individual key, using keys_slope():

wages_slope <- key_slope(wages, ln_wages ~ xp) 
wages_slope
#> # A tibble: 888 x 3
#>       id .intercept .slope_xp
#>    <int>      <dbl>     <dbl>
#>  1    31       1.41    0.101 
#>  2    36       2.04    0.0588
#>  3    53       2.29   -0.358 
#>  4   122       1.93    0.0374
#>  5   134       2.03    0.0831
#>  6   145       1.59    0.0469
#>  7   155       1.66    0.0867
#>  8   173       1.61    0.100 
#>  9   206       1.73    0.180 
#> 10   207       1.62    0.0884
#> # … with 878 more rows
…
Implementation of keys_near

If you are interested in the specifics of how keys_near() works, this section describes how it is implemented in brolgar.

To get the data into the right format, there are a few steps.

First, we need to get the data into a format where we have all the statistics that we are interested in, along with the id, and the statistic of interest.

We can fit a linear model for each key in the dataset using key_slope().

wages_slope <- key_slope(wages, ln_wages ~ xp)

wages_slope
#> # A tibble: 888 x 3
#>       id .intercept .slope_xp
#>    <int>      <dbl>     <dbl>
#>  1    31       1.41    0.101 
#>  2    36       2.04    0.0588
#>  3    53       2.29   -0.358 
#>  4   122       1.93    0.0374
#>  5   134       2.03    0.0831
#>  6   145       1.59    0.0469
#>  7   155       1.66    0.0867
#>  8   173       1.61    0.100 
#>  9   206       1.73    0.180 
#> 10   207       1.62    0.0884
#> # … with 878 more rows

We can then perform a summary of the statistic of interest, in this case the slope.

wages_slope_all_stats <- wages_slope %>%
  mutate_at(.vars = vars(.slope_xp),
            .funs = list(.slope_min = b_min,
                         .slope_max = b_max,
                         .slope_median = b_median,
                         .slope_q1 = b_q25,
                         .slope_q3 = b_q75)) %>%
  select(id,
         starts_with(".slope"))

wages_slope_all_stats
#> # A tibble: 888 x 7
#>       id .slope_xp .slope_min .slope_max .slope_median .slope_q1 .slope_q3
#>    <int>     <dbl>      <dbl>      <dbl>         <dbl>     <dbl>     <dbl>
#>  1    31    0.101       -4.58       13.2        0.0480  -0.00769    0.0947
#>  2    36    0.0588      -4.58       13.2        0.0480  -0.00769    0.0947
#>  3    53   -0.358       -4.58       13.2        0.0480  -0.00769    0.0947
#>  4   122    0.0374      -4.58       13.2        0.0480  -0.00769    0.0947
#>  5   134    0.0831      -4.58       13.2        0.0480  -0.00769    0.0947
#>  6   145    0.0469      -4.58       13.2        0.0480  -0.00769    0.0947
#>  7   155    0.0867      -4.58       13.2        0.0480  -0.00769    0.0947
#>  8   173    0.100       -4.58       13.2        0.0480  -0.00769    0.0947
#>  9   206    0.180       -4.58       13.2        0.0480  -0.00769    0.0947
#> 10   207    0.0884      -4.58       13.2        0.0480  -0.00769    0.0947
#> # … with 878 more rows

We then need to convert this into long format

wages_slope_all_stats_long <- 
wages_slope_all_stats %>%
gather(key = "stat",
         value = "stat_value",
         -id,
         -.slope_xp)

wages_slope_all_stats_long
#> # A tibble: 4,440 x 4
#>       id .slope_xp stat       stat_value
#>    <int>     <dbl> <chr>           <dbl>
#>  1    31    0.101  .slope_min      -4.58
#>  2    36    0.0588 .slope_min      -4.58
#>  3    53   -0.358  .slope_min      -4.58
#>  4   122    0.0374 .slope_min      -4.58
#>  5   134    0.0831 .slope_min      -4.58
#>  6   145    0.0469 .slope_min      -4.58
#>  7   155    0.0867 .slope_min      -4.58
#>  8   173    0.100  .slope_min      -4.58
#>  9   206    0.180  .slope_min      -4.58
#> 10   207    0.0884 .slope_min      -4.58
#> # … with 4,430 more rows

We can then calculate the difference between each stat and the slope, .slope_xp:

stats_diff <- 
wages_slope_all_stats_long %>%
  mutate(stat_diff = abs(.slope_xp - stat_value))

stats_diff
#> # A tibble: 4,440 x 5
#>       id .slope_xp stat       stat_value stat_diff
#>    <int>     <dbl> <chr>           <dbl>     <dbl>
#>  1    31    0.101  .slope_min      -4.58      4.68
#>  2    36    0.0588 .slope_min      -4.58      4.64
#>  3    53   -0.358  .slope_min      -4.58      4.22
#>  4   122    0.0374 .slope_min      -4.58      4.61
#>  5   134    0.0831 .slope_min      -4.58      4.66
#>  6   145    0.0469 .slope_min      -4.58      4.62
#>  7   155    0.0867 .slope_min      -4.58      4.66
#>  8   173    0.100  .slope_min      -4.58      4.68
#>  9   206    0.180  .slope_min      -4.58      4.76
#> 10   207    0.0884 .slope_min      -4.58      4.67
#> # … with 4,430 more rows
…
