Visualisation Gallery • brolgar
…
Select a sample of individuals

Sample n random individuals to explore (Note: Possibly not
representative)

For example, we can sample 20 random individuals, and then plot them.
(perhaps change sample_n_keys into
sample_id.)

wages %>%
  sample_n_keys(size = 20)
#> # A tsibble: 147 x 9 [!]
#> # Key:       id [20]
#>       id ln_wages    xp   ged xp_since_ged black hispanic high_grade unemploy_…¹
#>    <int>    <dbl> <dbl> <int>        <dbl> <int>    <int>      <int>       <dbl>
#>  1  6918    1.53   0.04     1         0.04     0        0          9       10.3 
#>  2  6918    1.56   0.88     1         0.88     0        0          9       16.2 
#>  3  6918    1.82   1.08     1         1.08     0        0          9       10.1 
#>  4  6918    1.61   2.22     1         2.22     0        0          9        9.1 
#>  5  6918    1.53   3.43     1         3.43     0        0          9        7.5 
#>  6  6918    1.48   4.76     1         4.76     0        0          9        6.49
#>  7  6918    1.63   5.44     1         5.44     0        0          9        4.49
#>  8  6918    2.20   6.50     1         6.50     0        0          9        4.99
#>  9  2026    0.956  1.15     0         0        0        0         11       14.9 
#> 10  2026    0.843  2.17     0         0        0        0         11       14.1 
#> # … with 137 more rows, and abbreviated variable name ¹​unemploy_rate
…
Filter only those with certain number of observations

There was a variety of the number of observations in the data - some
with only a few, and some with many. We can filter by the number of the
observations in the data using add_n_obs(), which adds a
new column, n_obs, the number of observations for each
key.

wages %>%
  add_n_obs()
#> # A tsibble: 6,402 x 10 [!]
#> # Key:       id [888]
#>       id    xp n_obs ln_wages   ged xp_since_ged black hispanic high_g…¹ unemp…²
#>    <int> <dbl> <int>    <dbl> <int>        <dbl> <int>    <int>    <int>   <dbl>
#>  1    31 0.015     8     1.49     1        0.015     0        1        8    3.21
#>  2    31 0.715     8     1.43     1        0.715     0        1        8    3.21
#>  3    31 1.73      8     1.47     1        1.73      0        1        8    3.21
#>  4    31 2.77      8     1.75     1        2.77      0        1        8    3.3 
#>  5    31 3.93      8     1.93     1        3.93      0        1        8    2.89
#>  6    31 4.95      8     1.71     1        4.95      0        1        8    2.49
#>  7    31 5.96      8     2.09     1        5.96      0        1        8    2.6 
#>  8    31 6.98      8     2.13     1        6.98      0        1        8    4.8 
#>  9    36 0.315    10     1.98     1        0.315     0        0        9    4.89
#> 10    36 0.983    10     1.80     1        0.983     0        0        9    7.4 
#> # … with 6,392 more rows, and abbreviated variable names ¹​high_grade,
#> #   ²​unemploy_rate
…
You can explore the available features, see the function References

Plot individuals with negative slope

We can find those individuals who have a negative slope using
key_slope. For more detail on key_slope, see
the Exploratory
Modelling vignette.

wages %>% key_slope(ln_wages ~ xp)
#> # A tibble: 888 × 3
#>       id .intercept .slope_xp
#>    <int>      <dbl>     <dbl>
#>  1    31       1.41    0.101 
#>  2    36       2.04    0.0588
#>  3    53       2.29   -0.358 
#>  4   122       1.93    0.0374
#>  5   134       2.03    0.0831
#>  6   145       1.59    0.0469
#>  7   155       1.66    0.0867
#>  8   173       1.61    0.100 
#>  9   206       1.73    0.180 
#> 10   207       1.62    0.0884
#> # … with 878 more rows
…
We could then do this along other features of a five number
summary:

wages_five <- wages %>%
    features(ln_wages, feat_five_num) %>%
  # ensures that we keep the data as a `tsibble`
  left_join(x = wages, y = ., by = "id")

wages_five
#> # A tsibble: 6,402 x 14 [!]
#> # Key:       id [888]
#>       id ln_wages    xp   ged xp_sin…¹ black hispa…² high_…³ unemp…⁴   min   q25
#>    <int>    <dbl> <dbl> <int>    <dbl> <int>   <int>   <int>   <dbl> <dbl> <dbl>
#>  1    31     1.49 0.015     1    0.015     0       1       8    3.21  1.43  1.48
#>  2    31     1.43 0.715     1    0.715     0       1       8    3.21  1.43  1.48
#>  3    31     1.47 1.73      1    1.73      0       1       8    3.21  1.43  1.48
#>  4    31     1.75 2.77      1    2.77      0       1       8    3.3   1.43  1.48
#>  5    31     1.93 3.93      1    3.93      0       1       8    2.89  1.43  1.48
#>  6    31     1.71 4.95      1    4.95      0       1       8    2.49  1.43  1.48
#>  7    31     2.09 5.96      1    5.96      0       1       8    2.6   1.43  1.48
#>  8    31     2.13 6.98      1    6.98      0       1       8    4.8   1.43  1.48
#>  9    36     1.98 0.315     1    0.315     0       0       9    4.89  1.80  1.97
#> 10    36     1.80 0.983     1    0.983     0       0       9    7.4   1.80  1.97
#> # … with 6,392 more rows, 3 more variables: med <dbl>, q75 <dbl>, max <dbl>,
#> #   and abbreviated variable names ¹​xp_since_ged, ²​hispanic, ³​high_grade,
#> #   ⁴​unemploy_rate
…
